SECRETKEYBYTES:256
PUBLICKEYBYTES:0
CYPHERTEXTBYTES:256
GENERATION:0.000954 0.00405 0.00405 0.00286 0.00405 0.00286 0.00405 0.00405 0.00501 0.00501 0.00596 0.00501 0.00405 0.00501 0.00405 0.00405 0.00381 0.00286 0.00405 0.00405 
GENERATION:0.00399 
CHIFFREMENT:164 159 162 171 159 159 162 159 159 163 159 159 164 159 159 159 158 159 162 161 
CHIFFREMENT:161 
DECHIFFREMENT:151 152 155 151 151 154 151 152 154 153 155 155 151 151 166 151 151 153 171 155 
DECHIFFREMENT:154 
SECURITY:256
