SECRETKEYBYTES: 64
PUBLICKEYBYTES: 60192
GENERATIONTIME: 5291 4931 4871 4939 4849 4771 5023 4832 4778 5044 4872 4781 4900 4927 4805 4841 5079 4820 4803 4762 4783 4742 4762 4747 4739 4761 4747 4966 4833 4746 4760 4737 4755 4746 4767 4747 4749 4731 4761 4744 4780 4751 4747 4744 4752 4777 4752 4752 4769 4749 4760 4756 4737 4766 4741 4734 4764 4751 4762 4740 4756 4739 4740 4774 4740 4735 4738 4785 4739 4742 4779 4765 4748 4755 4749 4745 4734 4751 4779 4743 4745 4749 4733 4745 4740 4750 4731 4780 4753 4737 4751 4745 4916 4785 4764 4758 4753 4737 4772 4750 
GENERATIONTIME: 4785
SIGNATURETIME: 3511 2693 2740 2652 2714 2673 2628 2608 2711 2725 2631 2656 2655 2616 2627 2638 2619 2659 2653 2646 2715 2620 2625 2630 2621 2624 2627 2612 2615 2634 2615 2618 2626 2613 2612 2634 2613 2616 2626 2620 2639 2622 2621 2629 2613 2626 2621 2626 2607 2658 2623 2606 2628 2623 2614 2632 2624 2616 2614 2618 2620 2630 2612 2613 2623 2610 2616 2642 2629 2612 2617 2615 2614 2633 2622 2625 2611 2663 2654 2636 2608 2631 2623 2611 2652 2651 2613 2618 2628 2618 2621 2619 2628 2625 2619 2622 2638 2623 2618 
SIGNATURETIME: 2613
VERIFICATIONTIME: 1010 658 633 641 690 643 667 638 634 634 659 637 658 635 645 688 643 634 661 639 638 647 637 637 633 646 633 645 633 634 643 648 637 642 633 633 644 642 646 635 639 633 633 643 644 633 648 634 633 633 656 635 634 638 633 640 641 642 634 637 634 642 644 654 634 640 638 644 637 633 633 636 637 648 633 653 647 640 659 650 633 637 635 649 643 647 650 643 639 634 641 646 655 667 681 672 664 667 660 
VERIFICATIONTIME: 640
SIGNATURETIME: 3202 2720 2722 2727 2833 2728 2655 2645 2707 2754 2752 2659 2657 2637 2688 2749 2728 2661 2679 2699 2734 2727 2633 2643 2681 2672 2695 2835 2744 2669 2658 2637 2651 2756 2779 2654 2682 2646 2655 2730 2694 2712 2766 2680 2631 2673 2653 2651 2660 2657 2656 2651 2640 2634 2676 2635 2635 2645 2638 2706 2657 2643 2636 2638 2649 2627 2645 2637 2647 2634 2652 2651 2643 2641 2655 2648 2631 2644 2657 2665 2622 2645 2634 2634 2640 2645 2669 2631 2648 2642 2644 2633 2641 2653 2633 2634 2647 2648 2626 
SIGNATURETIME: 2648
VERIFICATIONTIME: 853 660 638 643 632 642 671 642 634 650 638 638 651 641 644 644 645 650 648 645 643 633 639 633 643 634 647 643 634 634 633 641 642 633 633 633 634 647 640 633 643 633 645 657 633 633 636 633 634 646 634 639 643 633 638 639 644 633 634 633 643 644 639 655 646 633 643 634 637 633 655 638 646 633 637 634 651 659 655 653 653 665 653 662 662 636 634 637 633 646 633 645 633 639 657 639 638 635 637 
VERIFICATIONTIME: 637
SIGNATURETIME: 3300 2678 2723 2745 2722 2667 2624 2602 2715 2619 2604 2613 2743 2617 2642 2688 2677 2645 2611 2667 2762 2711 2666 2781 2655 2638 2661 2731 2676 2718 2679 2654 2638 2729 2730 2782 2668 2668 2621 2675 2613 2628 2630 2630 2624 2639 2614 2622 2681 2628 2636 2625 2633 2630 2609 2720 2643 2633 2631 2616 2641 2619 2632 2628 2622 2606 2625 2622 2626 2624 2623 2626 2607 2617 2620 2626 2618 2621 2626 2610 2628 2644 2626 2617 2621 2631 2618 2628 2642 2621 2638 2627 2646 2603 2646 2618 2624 2605 2622 
SIGNATURETIME: 2627
VERIFICATIONTIME: 781 645 670 692 668 653 647 641 661 673 644 643 643 643 663 649 662 645 647 665 681 639 637 637 640 650 661 635 635 637 639 656 643 635 648 635 634 651 646 638 636 634 653 645 639 645 635 635 649 635 641 645 635 634 646 635 636 642 636 641 658 657 638 644 635 650 636 634 634 636 641 653 645 635 635 635 663 664 654 654 654 657 699 671 645 635 634 634 664 637 643 636 640 645 641 637 635 635 643 
VERIFICATIONTIME: 640
