SECRETKEYBYTES:3040
PUBLICKEYBYTES:1312
CYPHERTEXTBYTES:1472
GENERATION:82 72 73 72 72 72 73 73 72 80 72 75 72 79 72 73 72 72 72 72 72 73 72 72 72 72 72 72 80 72 72 72 79 72 72 73 76 93 72 107 72 72 72 73 72 72 85 72 72 72 128 72 72 73 73 72 72 72 72 72 72 73 72 72 72 72 72 72 86 72 72 72 117 73 90 72 71 72 97 72 72 72 72 74 72 72 72 72 72 72 72 72 72 72 73 72 72 86 72 72 
GENERATION:75 
CHIFFREMENT:87 85 85 89 85 120 85 85 86 85 86 85 85 85 85 85 85 85 85 85 99 85 85 85 92 85 89 86 85 85 85 85 85 85 85 85 85 85 86 85 85 85 96 85 85 86 85 85 85 85 86 85 84 127 85 85 85 86 85 85 85 85 85 85 148 84 85 85 85 85 85 85 87 85 85 85 85 85 85 85 85 85 85 85 85 93 89 85 85 92 86 85 85 96 89 85 85 85 89 85 
CHIFFREMENT:87 
DECHIFFREMENT:95 104 94 94 94 93 93 94 93 93 94 93 94 93 97 93 106 93 98 93 94 94 97 93 93 94 94 93 94 94 94 94 93 93 93 243 153 95 97 94 93 97 93 93 94 97 93 93 93 97 95 94 93 93 93 93 116 94 93 94 104 94 94 94 94 93 94 93 93 93 93 94 94 93 97 93 94 94 96 93 94 112 96 94 94 94 94 94 93 93 96 93 93 93 93 93 94 94 94 94 
DECHIFFREMENT:96 
SECURITY:256 
